riscv/ALU/OP_0110011/OP_0110011.vcd
$date
	Sat Mar 29 18:32:03 2025
$end
$version
	Icarus Verilog
$end
$timescale
	1s
$end
$scope module OP_0110011_TEST $end
$var wire 32 ! output_value [31:0] $end
$var reg 1 " clk $end
$var reg 3 # funct3 [2:0] $end
$var reg 7 $ funct7 [6:0] $end
$var reg 32 % rs1 [31:0] $end
$var reg 32 & rs2 [31:0] $end
$var integer 32 ' error [31:0] $end
$scope module dut $end
$var wire 1 " clk $end
$var wire 3 ( funct3 [2:0] $end
$var wire 7 ) funct7 [6:0] $end
$var wire 32 * rs1 [31:0] $end
$var wire 32 + rs2 [31:0] $end
$var reg 32 , output_value [31:0] $end
$upscope $end
$upscope $end
$enddefinitions $end
$comment Show the parameter values. $end
$dumpall
$end
#0
$dumpvars
bx ,
bx +
bx *
bx )
bx (
b0 '
bx &
bx %
bx $
bx #
0"
bx !
$end
#5
b1111 !
b1111 ,
b101 &
b101 +
b1010 %
b1010 *
b0 $
b0 )
b0 #
b0 (
1"
#10
0"
#15
b101 !
b101 ,
1"
b100000 $
b100000 )
#20
0"
#25
b1000 !
b1000 ,
1"
b11 &
b11 +
b1 %
b1 *
b1 #
b1 (
#30
0"
#35
b1 !
b1 ,
1"
b0 &
b0 +
b11111111111111111111111111111111 %
b11111111111111111111111111111111 *
b10 #
b10 (
#40
0"
#45
b0 !
b0 ,
1"
b11 #
b11 (
#50
0"
#55
b11111111111111111111111111111111 !
b11111111111111111111111111111111 ,
1"
b1010101010101010101010101010101 &
b1010101010101010101010101010101 +
b10101010101010101010101010101010 %
b10101010101010101010101010101010 *
b100 #
b100 (
#60
0"
#65
b111111110000000011111111 !
b111111110000000011111111 ,
1"
b1000 &
b1000 +
b11111111000000001111111100000000 %
b11111111000000001111111100000000 *
b0 $
b0 )
b101 #
b101 (
#70
0"
#75
b11111111000000000000000000000000 !
b11111111000000000000000000000000 ,
1"
b100 &
b100 +
b11110000000000000000000000000000 %
b11110000000000000000000000000000 *
b100000 $
b100000 )
#80
0"
#85
b11111111111111111111111111111111 !
b11111111111111111111111111111111 ,
1"
b11110000111100001111000011110000 &
b11110000111100001111000011110000 +
b1111000011110000111100001111 %
b1111000011110000111100001111 *
b110 #
b110 (
#90
0"
#95
b1010000010100000101000001010 !
b1010000010100000101000001010 ,
1"
b1111000011110000111100001111 &
b1111000011110000111100001111 +
b10101010101010101010101010101010 %
b10101010101010101010101010101010 *
b111 #
b111 (
